<?xml version="1.0" encoding="utf-8"?>
<!-- Generator: Adobe Illustrator 22.1.0, SVG Export Plug-In . SVG Version: 6.00 Build 0)  -->
<svg version="1.1" id="Слой_1" xmlns="http://www.w3.org/2000/svg" xmlns:xlink="http://www.w3.org/1999/xlink" x="0px" y="0px"
	 viewBox="0 0 550 323.8" style="enable-background:new 0 0 550 323.8;" xml:space="preserve">
<style type="text/css">
	.st0{fill:#FCD228;}
	.st1{fill:#090141;}
</style>
<title>delivery</title>
<g>
	<rect y="86.9" class="st0" width="550" height="150"/>
	<g>
		<path class="st1" d="M495.2,137.3l-13.3-53c3.7-0.8,6.3-4.1,6.3-7.8v-8.6c0-18.6-15.1-33.7-33.7-33.7h-60.4V16.6
			c0-9.1-7.4-16.6-16.6-16.6H69.8c-9.1,0-16.6,7.4-16.6,16.6V162c0,4.4,3.6,8,8,8s8-3.6,8-8V16.5c0-0.3,0.2-0.5,0.5-0.5h307.9
			c0.3,0,0.5,0.2,0.5,0.5l0,0v145.4c0,4.4,3.6,8,8,8c4.4,0,8-3.6,8-8v-9.1h94.6c11.4,0,21.4,7.3,24.9,18.1h-24.9c-4.4,0-8,3.6-8,8
			V196c0,13.9,11.3,25.1,25.1,25.1h9.1v35.3h-21c-9.1-26.5-38-40.6-64.5-31.5c-14.8,5.1-26.4,16.7-31.5,31.5H394V196
			c0-4.4-3.6-8-8-8s-8,3.6-8,8v60.4H211.8c-9.1-26.5-38-40.6-64.5-31.5c-14.8,5.1-26.4,16.7-31.5,31.5H69.7c-0.3,0-0.5-0.2-0.5-0.5
			v-17.6H104c4.4,0,8-3.6,8-8s-3.6-8-8-8H27c-4.4,0-8,3.6-8,8s3.6,8,8,8h26.2v17.6c0,9.1,7.4,16.6,16.6,16.6h43.3c0,0.2,0,0.4,0,0.5
			c0.4,28,23.4,50.5,51.5,50.1c27.5-0.4,49.7-22.6,50.1-50.1c0-0.2,0-0.4,0-0.5h180.6c0,0.2,0,0.4,0,0.5c0,28,22.7,50.8,50.8,50.8
			c28,0,50.8-22.7,50.8-50.8c0-0.2,0-0.4,0-0.5H523c4.4,0,8-3.6,8-8v-85.6C530.9,158.1,515.7,140.4,495.2,137.3z M394.2,50.2h60.4
			c9.7,0,17.6,7.9,17.6,17.6v0.5h-78V50.2z M394.2,136.8V84.4h71.2l13.1,52.4H394.2z M163.8,307.8c-19.2,0-34.7-15.5-34.8-34.7
			c0-19.2,15.5-34.7,34.7-34.8s34.7,15.5,34.8,34.7l0,0C198.5,292.2,183,307.8,163.8,307.8L163.8,307.8z M446,307.8
			c-19.2,0-34.7-15.6-34.7-34.7c0-19.1,15.6-34.7,34.7-34.7c19.2,0,34.7,15.6,34.7,34.7l0,0C480.7,292.2,465.2,307.8,446,307.8
			L446,307.8z M515,205.2h-9.1c-5,0-9.1-4.1-9.1-9.1V187H515V205.2z"/>
		<path class="st1" d="M163.8,256.5c-9.2,0-16.6,7.4-16.6,16.6s7.4,16.6,16.6,16.6s16.6-7.4,16.6-16.6l0,0
			C180.4,263.9,173,256.5,163.8,256.5z"/>
		<path class="st1" d="M446,256.5c-9.2,0-16.6,7.4-16.6,16.6s7.4,16.6,16.6,16.6c9.2,0,16.6-7.4,16.6-16.6S455.1,256.5,446,256.5z"
			/>
		<path class="st1" d="M352,222.3H232.2c-4.4,0-8,3.6-8,8s3.6,8,8,8H352c4.4,0,8-3.6,8-8S356.4,222.3,352,222.3z"/>
		<path class="st1" d="M146.7,188.1H44.1c-4.4,0-8,3.6-8,8s3.6,8,8,8h102.6c4.4,0,8-3.6,8-8S151.1,188.1,146.7,188.1z"/>
		<path class="st1" d="M297.8,79.3c-3.1-3.1-8.2-3.1-11.3,0l0,0l-71.3,71.3L178,113.5c-3.1-3.1-8.2-3.1-11.3,0s-3.1,8.2,0,11.3l0,0
			l42.8,42.8c3.1,3.1,8.2,3.1,11.3,0l0,0l77-77C300.9,87.4,300.9,82.4,297.8,79.3z"/>
	</g>
</g>
</svg>
